10;1;Botanische kenmerken;19800101;;200610190918
10;2;Artikelkenmerken;19800101;;200610190918
10;3;Sorteringskenmerken;19800101;;200610190919
10;4;Kwaliteitskenmerken;19800101;;200610190919
10;5;Logistieke kenmerken;19800101;;200610190919
10;6;Transactiekenmerken;19850101;;200610190919
10;7;Veilingkenmerken;19800101;;200610190919
10;8;Exportkenmerken;20060601;;200610190919
10;9;Orderkenmerken;20060601;;201104111348
10;999;overige kenmerken;20060601;;200610190919
